{
  "emotions": {
    "joy": 0.001823484431952238,
    "sadness": 0.023924166336655617,
    "disgust": 0.4293651878833771,
    "contempt": 0.19416876137256622,
    "anger": 0.001958281733095646,
    "fear": 0.004512542858719826,
    "surprise": 0.19435931742191315,
    "valence": 0,
    "engagement": 0.08070243895053864
  },
  "expressions": {},
  "emojis": {
    "relaxed": 0,
    "smiley": 0,
    "laughing": 0,
    "kissing": 0,
    "disappointed": 0,
    "rage": 0,
    "smirk": 0,
    "wink": 0,
    "stuckOutTongueWinkingEye": 0,
    "stuckOutTongue": 0,
    "flushed": 0,
    "scream": 0,
    "dominantEmoji": "😐"
  },
  "appearance": {
    "gender": "Unknown",
    "glasses": "No",
    "age": "Unknown",
    "ethnicity": "Unknown"
  },
  "measurements": {
    "interocularDistance": 143.9744110107422,
    "orientation": {
      "pitch": 1.8158036470413208,
      "yaw": -5.89362907409668,
      "roll": -7.720449924468994
    }
  },
  "featurePoints": {
    "0": {
      "x": 182.9020233154297,
      "y": 316.4339599609375
    },
    "1": {
      "x": 225.6199493408203,
      "y": 387.1446838378906
    },
    "2": {
      "x": 300.3050537109375,
      "y": 413.4927673339844
    },
    "3": {
      "x": 361.6449890136719,
      "y": 372.0425720214844
    },
    "4": {
      "x": 387.85870361328125,
      "y": 296.7923583984375
    },
    "5": {
      "x": 189.86749267578125,
      "y": 214.37310791015625
    },
    "6": {
      "x": 222.53488159179688,
      "y": 191.82000732421875
    },
    "7": {
      "x": 263.68475341796875,
      "y": 197.19447326660156
    },
    "8": {
      "x": 306.2486572265625,
      "y": 195.68527221679688
    },
    "9": {
      "x": 343.3175964355469,
      "y": 185.55831909179688
    },
    "10": {
      "x": 373.93756103515625,
      "y": 202.7008056640625
    },
    "11": {
      "x": 288.26513671875,
      "y": 224.40431213378906
    },
    "12": {
      "x": 296.79913330078125,
      "y": 274.88470458984375
    },
    "13": {
      "x": 267.5478820800781,
      "y": 294.340087890625
    },
    "14": {
      "x": 296.3092346191406,
      "y": 296.1587219238281
    },
    "15": {
      "x": 322.0613098144531,
      "y": 290.51983642578125
    },
    "16": {
      "x": 212.45809936523438,
      "y": 234.4238739013672
    },
    "17": {
      "x": 254.031005859375,
      "y": 233.13865661621094
    },
    "18": {
      "x": 315.8622741699219,
      "y": 229.8214569091797
    },
    "19": {
      "x": 356.1977233886719,
      "y": 226.204833984375
    },
    "20": {
      "x": 255.59954833984375,
      "y": 344.8013916015625
    },
    "21": {
      "x": 287.0520324707031,
      "y": 321.3895568847656
    },
    "22": {
      "x": 297.7569580078125,
      "y": 324.0023193359375
    },
    "23": {
      "x": 308.09930419921875,
      "y": 319.82958984375
    },
    "24": {
      "x": 336.653564453125,
      "y": 337.4035339355469
    },
    "25": {
      "x": 323.24493408203125,
      "y": 352.397705078125
    },
    "26": {
      "x": 298.927734375,
      "y": 360.87884521484375
    },
    "27": {
      "x": 272.7774658203125,
      "y": 356.42645263671875
    },
    "28": {
      "x": 297.97540283203125,
      "y": 333.88018798828125
    },
    "29": {
      "x": 298.2484436035156,
      "y": 345.218017578125
    },
    "30": {
      "x": 232.62405395507812,
      "y": 228.50201416015625
    },
    "31": {
      "x": 232.56639099121094,
      "y": 237.66346740722656
    },
    "32": {
      "x": 336.2743835449219,
      "y": 222.70672607421875
    },
    "33": {
      "x": 337.81292724609375,
      "y": 232.0355224609375
    }
  }
}